<?xml version="1.0" encoding="UTF-8"?>
<svg width="14px" height="14px" viewBox="0 0 14 14" version="1.1" xmlns="http://www.w3.org/2000/svg" xmlns:xlink="http://www.w3.org/1999/xlink">
    <!-- Generator: sketchtool 41.2 (35397) - http://www.bohemiancoding.com/sketch -->
    <title>4D7AA397-F7F6-4C0F-962E-53B083BCFED7</title>
    <desc>Created with sketchtool.</desc>
    <defs></defs>
    <g id="Page-1" stroke="none" stroke-width="1" fill="none" fill-rule="evenodd">
        <g id="Web_Emailing-Document_Pop-Up" transform="translate(-796.000000, -677.000000)">
            <g id="close" transform="translate(791.000000, 672.000000)">
                <polygon id="Shape" fill="#000000" opacity="0.539999962" points="19 6.4 17.6 5 12 10.6 6.4 5 5 6.4 10.6 12 5 17.6 6.4 19 12 13.4 17.6 19 19 17.6 13.4 12"></polygon>
                <rect id="bounds" x="0" y="0" width="24" height="24"></rect>
            </g>
        </g>
    </g>
</svg>