<svg xmlns="http://www.w3.org/2000/svg" width="32" height="32" viewBox="0 0 32 32">
    <g fill="none" fill-rule="evenodd">
        <circle cx="16" cy="16" r="16" fill="#A6A6A6"/>
        <path fill="#303030" fill-rule="nonzero" d="M20.586 7.004L17.947 7c-2.964 0-4.88 1.739-4.88 4.43v2.042h-2.652c-.23 0-.415.165-.415.367v2.96c0 .203.186.367.415.367h2.653v7.467c0 .203.185.367.415.367h3.46c.23 0 .416-.164.416-.367v-7.467h3.101c.23 0 .415-.164.415-.367l.001-2.96a.347.347 0 0 0-.121-.26.444.444 0 0 0-.294-.107H17.36v-1.731c0-.832.224-1.255 1.449-1.255h1.777c.23 0 .415-.165.415-.367V7.37c0-.203-.185-.367-.414-.367z"/>
    </g>
</svg>
