<svg xmlns="http://www.w3.org/2000/svg" width="26" height="26" viewBox="0 0 26 26">
    <g fill="none" fill-rule="nonzero">
        <path fill="#105D8F" d="M19.343 17.388c-.83-.82-1.869-.82-2.694 0-.63.625-1.26 1.25-1.88 1.885-.17.175-.312.212-.519.095-.408-.222-.842-.402-1.234-.646-1.826-1.149-3.356-2.626-4.712-4.288-.672-.826-1.27-1.71-1.689-2.706-.084-.2-.068-.333.096-.497.63-.61 1.244-1.234 1.863-1.859.863-.868.863-1.884-.005-2.758-.492-.498-.985-.985-1.477-1.482-.508-.509-1.011-1.022-1.525-1.525-.831-.81-1.869-.81-2.695.005-.635.625-1.244 1.266-1.89 1.88-.598.566-.9 1.26-.964 2.07-.1 1.318.223 2.562.678 3.775.932 2.51 2.35 4.738 4.072 6.782 2.324 2.763 5.098 4.95 8.344 6.528 1.461.71 2.975 1.255 4.622 1.345 1.133.063 2.118-.223 2.907-1.107.54-.604 1.149-1.154 1.72-1.731.847-.858.853-1.896.01-2.743a815.179 815.179 0 0 0-3.028-3.023z"/>
        <path fill="#105E91" d="M18.222 12L20 11.69a8.18 8.18 0 0 0-2.22-4.381A7.841 7.841 0 0 0 13.25 5L13 6.826a6.084 6.084 0 0 1 3.507 1.787A6.311 6.311 0 0 1 18.222 12zM21.812 4.363C19.484 1.974 16.537.465 13.284 0L13 2.08c2.81.404 5.357 1.711 7.37 3.77A13.34 13.34 0 0 1 23.982 13L26 12.647a15.509 15.509 0 0 0-4.188-8.284z"/>
    </g>
</svg>
